Neighborhood Analysis - Lesson 2: Manipulating Data Frames
…
R read the data and is displaying it to us. But one problem - it read the data in and we can look at it, but it’s not really available for our continued use. We typically want to read data and store it as an object so that we can refer back to it and even modify it.

Let’s go ahead and read the Excel data in again, but this time, we’ll assign it to an object called “ozs”:

ozs<-read_excel("data/urbaninstitute_tractlevelozanalysis_update01142021.xlsx")

Look at your Environment window (top right quadrant of RStudio) - a data frame containing information on opportunity zones should be loaded in an object called “ozs”.

The environment window tells us that the object ozs contains 42,176 observations (rows) and 27 variables (columns).

If we type the name of the object, we can view it’s contents:

ozs

# A tibble: 42,178 × 27
   geoid       state   DesignatedOZ county    Type  dec_score SE_Flag Population
   <chr>       <chr>          <dbl> <chr>     <chr>     <dbl>   <dbl>      <dbl>
 1 01001020200 Alabama           NA Autauga … Low-…         4      NA       2196
 2 01001020300 Alabama           NA Autauga … Non-…         6      NA       3136
 3 01001020700 Alabama            1 Autauga … Low-…         8      NA       3047
 4 01001020802 Alabama           NA Autauga … Non-…        10      NA      10743
 5 01001021000 Alabama           NA Autauga … Non-…         5      NA       2899
 6 01001021100 Alabama           NA Autauga … Low-…         6      NA       3247
 7 01003010100 Alabama           NA Baldwin … Non-…         6      NA       4013
 8 01003010200 Alabama            1 Baldwin … Low-…         9      NA       3067
 9 01003010300 Alabama           NA Baldwin … Non-…        10      NA       8079
10 01003010400 Alabama            1 Baldwin … Non-…         9      NA       4578
# ℹ 42,168 more rows
# ℹ 19 more variables: medhhincome <dbl>, PovertyRate <dbl>, unemprate <dbl>,
#   medvalue <dbl>, medrent <dbl>, pctown <dbl>, severerentburden <dbl>,
#   vacancyrate <dbl>, pctwhite <dbl>, pctBlack <dbl>, pctHispanic <dbl>,
#   pctAAPIalone <dbl>, pctunder18 <dbl>, pctover64 <dbl>, HSorlower <dbl>,
#   BAorhigher <dbl>, Metro <dbl>, Micro <dbl>, NoCBSAType <dbl>
…
Your Turn!

Solution

Practice your querying skills - how would we return only those records for census tracts with a median household income above $100,000 per year?

ozs[ozs$medhhincome>=100000,]

# A tibble: 399 × 27
   geoid       state   DesignatedOZ county    Type  dec_score SE_Flag Population
   <chr>       <chr>          <dbl> <chr>     <chr>     <dbl>   <dbl>      <dbl>
 1 <NA>        <NA>              NA <NA>      <NA>         NA      NA         NA
 2 <NA>        <NA>              NA <NA>      <NA>         NA      NA         NA
 3 <NA>        <NA>              NA <NA>      <NA>         NA      NA         NA
 4 <NA>        <NA>              NA <NA>      <NA>         NA      NA         NA
 5 04013815600 Arizona           NA Maricopa… Non-…        10      NA       5762
 6 04013816800 Arizona           NA Maricopa… Non-…        10       1       3727
 7 <NA>        <NA>              NA <NA>      <NA>         NA      NA         NA
 8 <NA>        <NA>              NA <NA>      <NA>         NA      NA         NA
 9 <NA>        <NA>              NA <NA>      <NA>         NA      NA         NA
10 <NA>        <NA>              NA <NA>      <NA>         NA      NA         NA
# ℹ 389 more rows
# ℹ 19 more variables: medhhincome <dbl>, PovertyRate <dbl>, unemprate <dbl>,
#   medvalue <dbl>, medrent <dbl>, pctown <dbl>, severerentburden <dbl>,
#   vacancyrate <dbl>, pctwhite <dbl>, pctBlack <dbl>, pctHispanic <dbl>,
#   pctAAPIalone <dbl>, pctunder18 <dbl>, pctover64 <dbl>, HSorlower <dbl>,
#   BAorhigher <dbl>, Metro <dbl>, Micro <dbl>, NoCBSAType <dbl>

Tracts in Illinois

Oftentimes, we’ll want to query out a subset of observations based upon their geographic location. Let’s try selecting all tracts in Illinois based upon their designation status.

Your Turn!

Solution

How would we query out tracts in Illinois? Experiment in your own script.

ozs[ozs$state == "Illinois",]

# A tibble: 1,682 × 27
   geoid       state    DesignatedOZ county   Type  dec_score SE_Flag Population
   <chr>       <chr>           <dbl> <chr>    <chr>     <dbl>   <dbl>      <dbl>
 1 17001000201 Illinois           NA Adams C… Non-…         7      NA       1937
 2 17001000202 Illinois           NA Adams C… Low-…         1      NA       2563
 3 17001000400 Illinois           NA Adams C… Low-…         1      NA       3403
 4 17001000500 Illinois           NA Adams C… Low-…         1      NA       2298
 5 17001000700 Illinois           NA Adams C… Low-…         1      NA       1259
 6 17001000800 Illinois            1 Adams C… Low-…         1      NA       2700
 7 17001000900 Illinois           NA Adams C… Low-…         5      NA       2671
 8 17001010100 Illinois           NA Adams C… Non-…         2      NA       4323
 9 17001010200 Illinois           NA Adams C… Low-…         2      NA       3436
10 17001010300 Illinois           NA Adams C… Non-…         8      NA       6038
# ℹ 1,672 more rows
# ℹ 19 more variables: medhhincome <dbl>, PovertyRate <dbl>, unemprate <dbl>,
#   medvalue <dbl>, medrent <dbl>, pctown <dbl>, severerentburden <dbl>,
#   vacancyrate <dbl>, pctwhite <dbl>, pctBlack <dbl>, pctHispanic <dbl>,
#   pctAAPIalone <dbl>, pctunder18 <dbl>, pctover64 <dbl>, HSorlower <dbl>,
#   BAorhigher <dbl>, Metro <dbl>, Micro <dbl>, NoCBSAType <dbl>
…
Now count the number of tracts that were designated (where the value is not NA).

sum(!is.na(ozs$Designated))

Warning: Unknown or uninitialised column: `Designated`.

[1] 0

We might also want to recode those NA values to something else. We can use assignment and subset notation to replace na values with something else. Let’s replace those NAs in the Designated column with 0.

ozs$DesignatedOZ[is.na(ozs$DesignatedOZ)]<-0
ozs

# A tibble: 42,178 × 27
   geoid       state   DesignatedOZ county    Type  dec_score SE_Flag Population
   <chr>       <chr>          <dbl> <chr>     <chr>     <dbl>   <dbl>      <dbl>
 1 01001020200 Alabama            0 Autauga … Low-…         4      NA       2196
 2 01001020300 Alabama            0 Autauga … Non-…         6      NA       3136
 3 01001020700 Alabama            1 Autauga … Low-…         8      NA       3047
 4 01001020802 Alabama            0 Autauga … Non-…        10      NA      10743
 5 01001021000 Alabama            0 Autauga … Non-…         5      NA       2899
 6 01001021100 Alabama            0 Autauga … Low-…         6      NA       3247
 7 01003010100 Alabama            0 Baldwin … Non-…         6      NA       4013
 8 01003010200 Alabama            1 Baldwin … Low-…         9      NA       3067
 9 01003010300 Alabama            0 Baldwin … Non-…        10      NA       8079
10 01003010400 Alabama            1 Baldwin … Non-…         9      NA       4578
# ℹ 42,168 more rows
# ℹ 19 more variables: medhhincome <dbl>, PovertyRate <dbl>, unemprate <dbl>,
#   medvalue <dbl>, medrent <dbl>, pctown <dbl>, severerentburden <dbl>,
#   vacancyrate <dbl>, pctwhite <dbl>, pctBlack <dbl>, pctHispanic <dbl>,
#   pctAAPIalone <dbl>, pctunder18 <dbl>, pctover64 <dbl>, HSorlower <dbl>,
#   BAorhigher <dbl>, Metro <dbl>, Micro <dbl>, NoCBSAType <dbl>
…
