Neighborhood Analysis - Lesson 3: Tidy Data
…
For instance, here’s how we’re filter out all records for tracts in Illinois:

1ozs |>
2  filter(state == "Illinois")

1

From the ozs data object;

2

Filter out those rows in the column “state” for which state is equal to “Illinois”

# A tibble: 1,659 × 27
   geoid       state    DesignatedOZ county   Type  dec_score SE_Flag Population
   <chr>       <chr>           <dbl> <chr>    <chr>     <dbl>   <dbl>      <dbl>
 1 17001000201 Illinois            0 Adams C… Non-…         7      NA       1937
 2 17001000202 Illinois            0 Adams C… Low-…         1      NA       2563
 3 17001000400 Illinois            0 Adams C… Low-…         1      NA       3403
 4 17001000500 Illinois            0 Adams C… Low-…         1      NA       2298
 5 17001000700 Illinois            0 Adams C… Low-…         1      NA       1259
 6 17001000800 Illinois            1 Adams C… Low-…         1      NA       2700
 7 17001000900 Illinois            0 Adams C… Low-…         5      NA       2671
 8 17001010100 Illinois            0 Adams C… Non-…         2      NA       4323
 9 17001010200 Illinois            0 Adams C… Low-…         2      NA       3436
10 17001010300 Illinois            0 Adams C… Non-…         8      NA       6038
# ℹ 1,649 more rows
# ℹ 19 more variables: medhhincome <dbl>, PovertyRate <dbl>, unemprate <dbl>,
#   medvalue <dbl>, medrent <dbl>, pctown <dbl>, severerentburden <dbl>,
#   vacancyrate <dbl>, pctwhite <dbl>, pctBlack <dbl>, pctHispanic <dbl>,
#   pctAAPIalone <dbl>, pctunder18 <dbl>, pctover64 <dbl>, HSorlower <dbl>,
#   BAorhigher <dbl>, Metro <dbl>, Micro <dbl>, NoCBSAType <dbl>
…
Similar to filter, we can use select() to select specific columns in our data frame:

1ozs |>
2  select(state, DesignatedOZ)

1

From the ozs dataset;

2

Select the columns named “state” and “DesignatedOZ”.

# A tibble: 42,178 × 2
   state   DesignatedOZ
   <chr>          <dbl>
 1 Alabama            0
 2 Alabama            0
 3 Alabama            1
 4 Alabama            0
 5 Alabama            0
 6 Alabama            0
 7 Alabama            0
 8 Alabama            1
 9 Alabama            0
10 Alabama            1
# ℹ 42,168 more rows
…
1

From the ‘ozs’ dataset;

2

Select the columns “state”, “Designated OZ”, and “Metro”;

3

From the state column, select the subset of values where state is equal to “Illinois”.

# A tibble: 1,659 × 3
   state    DesignatedOZ Metro
   <chr>           <dbl> <dbl>
 1 Illinois            0    NA
 2 Illinois            0    NA
 3 Illinois            0    NA
 4 Illinois            0    NA
 5 Illinois            0    NA
 6 Illinois            1    NA
 7 Illinois            0    NA
 8 Illinois            0    NA
 9 Illinois            0    NA
10 Illinois            0    NA
# ℹ 1,649 more rows
…
1

From the ‘ozs’ dataset;

2

Select the columns “state”, “Designated OZ”, and “Metro”;

3

From the state column, select the subset of values where state is equal to “Illinois” AND where the Metro column is equal to 1.

# A tibble: 1,344 × 3
   state    DesignatedOZ Metro
   <chr>           <dbl> <dbl>
 1 Illinois            0     1
 2 Illinois            0     1
 3 Illinois            0     1
 4 Illinois            1     1
 5 Illinois            1     1
 6 Illinois            0     1
 7 Illinois            1     1
 8 Illinois            0     1
 9 Illinois            0     1
10 Illinois            0     1
# ℹ 1,334 more rows
…
Modify your above code to group your data by state and designation status in order to be able to examine state-to-state differences.

ozs |> 
  group_by(state, DesignatedOZ) |>  summarise(
    tracts = n(),
    income = mean(medhhincome, na.rm=TRUE),
    poverty = mean(PovertyRate, na.rm=TRUE),
    rent_burden = mean(severerentburden, na.rm=TRUE))

`summarise()` has grouped output by 'state'. You can override using the
`.groups` argument.

# A tibble: 108 × 6
# Groups:   state [57]
   state          DesignatedOZ tracts income poverty rent_burden
   <chr>                 <dbl>  <int>  <dbl>   <dbl>       <dbl>
 1 Alabama                   0    677 36542.   0.239       0.212
 2 Alabama                   1    158 30044.   0.328       0.246
 3 Alaska                    0     43 54784.   0.149       0.180
 4 Alaska                    1     25 49840.   0.167       0.178
 5 American Samoa            1     16   NaN  NaN         NaN    
 6 Arizona                   0    702 40961.   0.246       0.236
 7 Arizona                   1    168 34373.   0.315       0.237
 8 Arkansas                  0    435 37814.   0.221       0.192
 9 Arkansas                  1     85 31254.   0.301       0.228
10 California                0   3464 50858.   0.207       0.298
# ℹ 98 more rows
If you modified this correctly, you should now have an output table with 108 rows, each reflecting summaries for a state and unique OZ designation status.

There are other fairly interesting things that we can do with our grouping and summarizing. We figured out how to use multiple groups to summarize our data in useful ways. What we probably want is to get that all into the same table.

One strategy for doing this is to include conditions in our summary statements. The code below summarizes the average median income by state, but then includes conditions on summarizing means income. This allows us to get the incomes of designated and undesignated tracts on the same row.

ozs |>  
  group_by(state) |> 
  summarise(
    tracts = n(), 
    income = mean(medhhincome, na.rm=TRUE), 
    Des_inc = mean(medhhincome[DesignatedOZ == 1], na.rm=TRUE), 
    Not_Des_Inc = mean(medhhincome[DesignatedOZ == 0], na.rm=TRUE))

# A tibble: 57 × 5
   state                tracts income Des_inc Not_Des_Inc
   <chr>                 <int>  <dbl>   <dbl>       <dbl>
 1 Alabama                 835 35311.  30044.      36542.
 2 Alaska                   68 52911.  49840.      54784.
 3 American Samoa           16   NaN     NaN         NaN 
 4 Arizona                 870 39692.  34373.      40961.
 5 Arkansas                520 36740.  31254.      37814.
 6 California             4343 47878.  36134.      50858.
 7 Colorado                657 47976.  41138.      49601.
 8 Connecticut             344 48318.  36760.      51389.
 9 Delaware                118 48200.  40971.      50143.
10 District of Columbia    116 57672.  38291.      62840.
# ℹ 47 more rows
Your Turn
Solution

How would you modify the above code to produce the same table for counties in Illinois?

ozs |>  
  filter(state == "Illinois") |> 
  group_by(county) |> 
  summarise(
    tracts = n(), 
    income = mean(medhhincome, na.rm=TRUE), 
    Des_inc = mean(medhhincome[DesignatedOZ == 1], na.rm=TRUE), 
    Not_Des_Inc = mean(medhhincome[DesignatedOZ == 0], na.rm=TRUE))

# A tibble: 95 × 5
   county           tracts income Des_inc Not_Des_Inc
   <chr>             <int>  <dbl>   <dbl>       <dbl>
 1 Adams County         10 38254   26012       39614.
 2 Alexander County      4 29982.  21500       32809 
 3 Bond County           2 50950   49590       52310 
 4 Boone County          3 44028.  40599       45742 
 5 Bureau County         4 57275.  48083       60339.
 6 Calhoun County        2 55290     NaN       55290 
 7 Carroll County        2 47063   35184       58942 
 8 Cass County           3 43787.  37679       46840.
 9 Champaign County     30 39063.  13989.      45604.
10 Christian County      8 44723.  36164       45945.
# ℹ 85 more rows
…
We’re getting pretty good at passing data along using pipes (|>). We’ve learned how to use group_by() and summarise() to quickly create summary tables. What if we wanted to modify these tables? One thing that might help us better understand our summary table would be to calculate the difference in the average median income for our designated and not designated tracts.

mutate() allows us to add new columns to our existing data (this will work on non-summarized data too). The code below adds a column called “Inc_Diff” to our summary table, and places into this column the difference between the income in designated and not designated census tracts:

ozs |>  
  filter(state == "Illinois") |>  
  group_by(county) |>  
  summarise(
    tracts = n(), 
    income = mean(medhhincome, na.rm=TRUE), 
    Des_inc = mean(medhhincome[DesignatedOZ == 1], na.rm=TRUE), 
    Not_Des_Inc = mean(medhhincome[DesignatedOZ == 0], na.rm=TRUE)) |> 
  mutate(Inc_Diff = Des_inc - Not_Des_Inc)

# A tibble: 95 × 6
   county           tracts income Des_inc Not_Des_Inc Inc_Diff
   <chr>             <int>  <dbl>   <dbl>       <dbl>    <dbl>
 1 Adams County         10 38254   26012       39614.  -13602.
 2 Alexander County      4 29982.  21500       32809   -11309 
 3 Bond County           2 50950   49590       52310    -2720 
 4 Boone County          3 44028.  40599       45742    -5143 
 5 Bureau County         4 57275.  48083       60339.  -12256.
 6 Calhoun County        2 55290     NaN       55290      NaN 
 7 Carroll County        2 47063   35184       58942   -23758 
 8 Cass County           3 43787.  37679       46840.   -9162.
 9 Champaign County     30 39063.  13989.      45604.  -31615.
10 Christian County      8 44723.  36164       45945.   -9781.
# ℹ 85 more rows
…
Your Turn
Solution

Looking at the state level (by each state), how different are the poverty rates of designated opportunity zones in metropolitan, micropolitan, and non-CBSA areas?

ozs |> 
  filter(DesignatedOZ == 1) |> 
  group_by(state) |>  
  summarise(
    Metro = mean(PovertyRate[Metro == 1], na.rm=TRUE),
    Micro = mean(PovertyRate[Micro == 1], na.rm=TRUE),
    Non_CBSA = mean(PovertyRate[NoCBSAType == 1], na.rm=TRUE))

# A tibble: 56 × 4
   state                  Metro   Micro Non_CBSA
   <chr>                  <dbl>   <dbl>    <dbl>
 1 Alabama                0.347   0.282    0.275
 2 Alaska                 0.156 NaN        0.178
 3 American Samoa       NaN     NaN      NaN    
 4 Arizona                0.319   0.311    0.239
 5 Arkansas               0.334   0.287    0.262
 6 California             0.332   0.311    0.209
 7 Colorado               0.245   0.169    0.201
 8 Connecticut            0.284   0.319  NaN    
 9 Delaware               0.262 NaN      NaN    
10 District of Columbia   0.322 NaN      NaN    
# ℹ 46 more rows
…
Looking at the state level (by state), what’s the average age dependence ratio for designated and non-designated tracts?

Tip: The age dependence ratio is the proportion of the population under 18 or over 64 compared to the population between 18 and 64. In our dataset, we have the proportion under 18 (pctunder18) and the proportion over 64 (pctover64)

ozs |>  
  select(state, DesignatedOZ, pctunder18, pctover64) |>  
  mutate(
    adr = (pctunder18+pctover64)/(1-(pctunder18+pctover64))) |> 
  group_by(state) |>   
  summarise(Designated_ADR = mean(adr[DesignatedOZ == 1], na.rm=TRUE),
          NotDesignated_ADR = mean(adr[DesignatedOZ == 0], na.rm=TRUE))

# A tibble: 57 × 3
   state                Designated_ADR NotDesignated_ADR
   <chr>                         <dbl>             <dbl>
 1 Alabama                       0.592             0.644
 2 Alaska                        0.540             0.556
 3 American Samoa              NaN               NaN    
 4 Arizona                       0.651             0.771
 5 Arkansas                      0.643             0.681
 6 California                    0.606             0.590
 7 Colorado                      0.590             0.572
 8 Connecticut                   0.543             0.560
 9 Delaware                      0.601             0.614
10 District of Columbia          0.535             0.486
# ℹ 47 more rows
…
