Neighborhood Analysis - Place Opportunity
…
dataset |> 
  summarise(
  under18_mean = mean(under18, na.rm=TRUE), 
  under18_sd = sd(under18, na.rm=TRUE),
  z_under18 = (under18 - under18_mean)/under18_sd
  )

Warning: Returning more (or less) than 1 row per `summarise()` group was deprecated in
dplyr 1.1.0.
ℹ Please use `reframe()` instead.
ℹ When switching from `summarise()` to `reframe()`, remember that `reframe()`
  always returns an ungrouped data frame and adjust accordingly.

# A tibble: 2,327 × 3
   under18_mean under18_sd z_under18
          <dbl>      <dbl>     <dbl>
 1        0.205     0.0773   0.960  
 2        0.205     0.0773   1.98   
 3        0.205     0.0773   0.572  
 4        0.205     0.0773  -0.254  
 5        0.205     0.0773   0.980  
 6        0.205     0.0773   0.706  
 7        0.205     0.0773  -0.253  
 8        0.205     0.0773   0.865  
 9        0.205     0.0773  -0.00949
10        0.205     0.0773   0.539  
# ℹ 2,317 more rows

For the first observation, the value for Under 18 is 27.9 percent. The average value for tracts in Illinois is 27.9 percent, and the standard deviation is 7.73. The standardized score of .960 indicates that the observation is .96 of a standard deviation above the mean. There’s absolutely nothing wrong with doing this manually, however, we can use the scale() function to do the same thing:

Code

dataset |>  
  mutate(under18 = scale(under18))

# A tibble: 2,327 × 30
   GEOID       under18[,1] over65   Pop P_Female PWhite PBlack   PAIAN PAsian
   <chr>             <dbl>  <dbl> <dbl>    <dbl>  <dbl>  <dbl>   <dbl>  <dbl>
 1 36047009202     0.960   0.0747  3453    0.514 0.296  0.0568 0.00782 0.300 
 2 36047009401     1.98    0.0763  2293    0.515 0.0754 0.0754 0       0.690 
 3 36047009402     0.572   0.0885  2746    0.548 0.172  0.0138 0       0.695 
 4 36047009600    -0.254   0.132   5858    0.570 0.362  0.0446 0.00751 0.340 
 5 36047009800     0.980   0.0864  6021    0.498 0.153  0.0485 0       0.383 
 6 36047010000     0.706   0.128   5978    0.541 0.264  0.0238 0.0110  0.423 
 7 36047010100    -0.253   0.0842  3944    0.508 0.510  0.0418 0.0327  0.0903
 8 36047010200     0.865   0.126   4844    0.515 0.124  0.0142 0       0.705 
 9 36047010401    -0.00949 0.125   2152    0.487 0.106  0.0279 0       0.838 
10 36047010402     0.539   0.148   2256    0.523 0.0638 0      0       0.879 
# ℹ 2,317 more rows
# ℹ 21 more variables: PNonwhite <dbl>, PLatino <dbl>, PForeignborn <dbl>,
#   P_FHHH <dbl>, Pov <dbl>, MHHI <dbl>, Rvac <dbl>, P_Own <dbl>, MHV <dbl>,
#   CostBurden <dbl>, STUSAB <chr>, pct_transit_j2w <dbl>,
#   median_gross_rent <dbl>, pct_hu_1_detached <dbl>, job_density_simple <dbl>,
#   retail_density_simple <dbl>, median_commute <dbl>, CANCER <dbl>,
#   RESP <dbl>, PTRAF <dbl>, PM25 <dbl>
…
